Id,SalePrice
1461,281251.7
1462,318800.0
1463,314713.7
1464,293761.0
1465,211125.0
1466,248300.0
1467,144670.0
1468,199723.2
1469,252623.6
1470,194718.0
1471,219815.0
1472,104500.0
1473,104500.0
1474,154610.8
1475,158205.0
1476,247394.3
1477,357898.8
1478,262361.7
1479,328650.0
1480,318800.0
1481,284651.8
1482,172065.0
1483,152840.0
1484,163535.0
1485,217984.0
1486,192833.2
1487,257228.0
1488,176208.0
1489,328032.6
1490,283922.0
1491,195870.0
1492,89830.0
1493,322692.2
1494,231361.3
1495,211893.5
1496,191955.0
1497,153991.2
1498,154891.2
1499,154891.2
1500,154891.2
1501,154891.2
1502,158316.0
1503,298631.4
1504,211893.5
1505,213901.2
1506,244175.8
1507,232975.0
1508,175440.0
1509,245280.0
1510,183170.5
1511,159396.5
1512,183170.5
1513,214250.0
1514,185697.0
1515,147300.0
1516,176940.0
1517,191367.0
1518,148700.0
1519,153209.0
1520,143070.0
1521,204777.5
1522,169069.0
1523,116700.0
1524,225790.7
1525,238030.7
1526,147250.0
1527,77650.0
1528,130740.0
1529,147670.0
1530,181655.5
1531,136340.0
1532,112260.0
1533,130530.0
1534,127940.0
1535,189180.0
1536,132810.0
1537,132230.0
1538,130390.0
1539,132490.0
1540,125350.0
1541,169050.0
1542,121430.0
1543,210710.0
1544,112260.0
1545,131990.0
1546,131990.0
1547,129440.0
1548,131990.0
1549,131940.0
1550,131940.0
1551,123510.0
1552,132810.0
1553,218299.6
1554,117620.0
1555,320634.4
1556,203900.0
1557,107375.0
1558,114735.0
1559,179450.0
1560,135810.4
1561,142270.0
1562,147670.0
1563,147670.0
1564,142400.0
1565,227143.5
1566,149940.0
1567,108200.0
1568,237294.5
1569,175440.0
1570,289311.7
1571,141500.0
1572,180780.5
1573,159790.0
1574,273144.9
1575,203651.7
1576,267541.7
1577,149657.9
1578,345450.0
1579,187337.0
1580,192930.0
1581,320634.4
1582,149657.9
1583,245074.4
1584,246830.0
1585,156260.0
1586,105300.0
1587,177618.0
1588,169069.0
1589,196500.0
1590,197230.0
1591,131075.8
1592,78200.0
1593,77650.0
1594,124750.0
1595,147250.0
1596,146150.0
1597,191237.0
1598,221768.0
1599,223030.0
1600,223030.0
1601,131330.0
1602,134450.0
1603,88860.0
1604,223030.0
1605,253980.0
1606,222390.0
1607,163792.9
1608,224511.7
1609,166896.5
1610,246380.0
1611,320634.4
1612,231314.3
1613,224511.7
1614,159948.0
1615,95100.0
1616,99550.0
1617,99550.0
1618,154603.7
1619,357898.8
1620,149200.0
1621,227590.0
1622,146150.0
1623,157646.5
1624,235473.0
1625,276775.1
1626,244955.5
1627,220740.0
1628,200945.0
1629,215000.0
1630,175540.0
1631,175540.0
1632,129850.0
1633,219790.0
1634,195690.0
1635,214709.9
1636,159315.8
1637,193098.0
1638,225661.3
1639,232146.0
1640,240041.7
1641,267051.0
1642,199545.0
1643,210888.5
1644,205185.0
1645,216195.0
1646,207896.9
1647,270261.0
1648,147670.0
1649,200208.0
1650,153455.8
1651,173008.0
1652,105850.0
1653,105850.0
1654,154710.8
1655,166080.0
1656,154710.8
1657,154710.8
1658,154710.8
1659,166080.0
1660,194424.3
1661,302363.6
1662,238141.7
1663,282778.5
1664,237673.4
1665,271223.4
1666,185340.0
1667,232484.0
1668,237041.2
1669,232546.0
1670,251373.4
1671,317240.8
1672,301234.4
1673,225661.3
1674,186273.0
1675,186895.0
1676,203475.0
1677,325117.6
1678,294390.0
1679,301234.4
1680,175540.0
1681,197091.5
1682,193340.0
1683,165950.0
1684,257990.0
1685,210930.0
1686,166080.0
1687,226090.0
1688,187640.0
1689,251940.0
1690,210930.0
1691,190973.2
1692,270938.7
1693,217150.0
1694,207373.2
1695,210710.0
1696,420464.3
1697,210710.0
1698,250394.3
1699,206874.3
1700,207684.0
1701,194060.0
1702,270363.4
1703,245504.8
1704,207896.9
1705,222586.0
1706,257601.0
1707,210201.2
1708,235793.2
1709,222701.7
1710,198551.2
1711,254100.0
1712,214646.8
1713,280060.2
1714,235793.2
1715,201260.0
1716,186273.0
1717,149657.9
1718,149657.9
1719,236750.0
1720,207896.9
1721,277725.1
1722,277725.1
1723,306550.2
1724,149657.9
1725,213010.0
1726,191640.0
1727,176490.0
1728,207030.0
1729,220740.0
1730,143440.0
1731,184583.0
1732,200308.0
1733,215427.0
1734,216195.0
1735,147670.0
1736,152115.8
1737,256182.2
1738,186370.0
1739,156764.5
1740,191775.0
1741,191345.0
1742,156764.5
1743,157571.2
1744,297330.0
1745,328892.2
1746,226090.0
1747,237894.3
1748,230440.0
1749,186273.0
1750,173008.0
1751,295096.9
1752,152115.8
1753,186273.0
1754,250130.0
1755,210727.0
1756,149657.9
1757,161059.0
1758,204276.0
1759,288023.4
1760,216195.0
1761,215342.6
1762,210930.0
1763,188687.0
1764,184670.5
1765,162411.5
1766,215342.6
1767,297330.0
1768,168518.0
1769,290766.5
1770,216195.0
1771,166178.0
1772,166178.0
1773,237041.2
1774,160900.0
1775,161059.0
1776,277725.1
1777,94510.0
1778,147670.0
1779,183883.0
1780,231070.0
1781,186273.0
1782,125775.8
1783,235450.0
1784,218910.0
1785,107650.0
1786,137800.0
1787,200110.0
1788,85900.0
1789,101200.0
1790,101200.0
1791,152960.0
1792,207896.9
1793,271223.4
1794,144670.0
1795,236142.6
1796,173008.0
1797,139440.0
1798,149657.9
1799,151515.8
1800,210710.0
1801,172800.0
1802,139440.0
1803,194590.0
1804,143790.0
1805,146920.0
1806,151090.0
1807,165750.0
1808,245882.2
1809,135290.0
1810,118240.0
1811,133350.0
1812,168430.0
1813,131990.0
1814,128150.0
1815,122810.0
1816,117470.0
1817,132490.0
1818,130690.0
1819,117620.0
1820,76500.0
1821,129640.0
1822,135290.0
1823,98030.0
1824,84550.0
1825,201980.0
1826,131990.0
1827,121960.0
1828,131990.0
1829,125870.0
1830,128240.0
1831,135290.0
1832,140300.0
1833,122990.0
1834,123990.0
1835,130650.0
1836,132340.0
1837,135820.0
1838,141950.0
1839,119395.8
1840,149290.0
1841,141570.0
1842,141640.0
1843,271223.4
1844,210310.0
1845,214384.0
1846,236434.0
1847,214384.0
1848,173008.0
1849,256182.2
1850,183883.0
1851,210280.0
1852,149657.9
1853,163825.0
1854,214250.0
1855,213711.0
1856,234040.0
1857,250819.0
1858,126881.1
1859,126881.1
1860,126881.1
1861,126881.1
1862,164987.0
1863,143440.0
1864,143440.0
1865,232146.0
1866,206874.3
1867,218011.0
1868,326473.4
1869,159963.7
1870,236641.2
1871,262325.1
1872,181760.0
1873,255204.0
1874,184670.5
1875,292540.0
1876,205030.0
1877,199274.3
1878,270363.4
1879,180550.0
1880,154603.7
1881,262325.1
1882,238141.7
1883,205030.0
1884,243603.5
1885,206990.0
1886,294688.5
1887,166178.0
1888,244955.5
1889,250780.0
1890,194424.3
1891,156430.0
1892,131075.8
1893,262835.1
1894,156187.0
1895,262835.1
1896,130850.0
1897,109115.0
1898,201980.0
1899,116200.0
1900,200110.0
1901,228911.7
1902,297330.0
1903,143440.0
1904,215427.0
1905,275023.4
1906,222132.2
1907,181540.0
1908,105850.0
1909,96900.0
1910,105850.0
1911,199684.0
1912,163790.0
1913,130690.0
1914,116140.0
1915,223030.0
1916,150680.0
1917,251940.0
1918,218950.0
1919,215500.0
1920,270261.0
1921,301148.4
1922,296363.2
1923,249580.0
1924,236644.0
1925,205630.0
1926,296888.5
1927,306550.2
1928,275023.4
1929,210310.0
1930,210710.0
1931,210310.0
1932,230440.0
1933,230440.0
1934,203630.0
1935,182483.2
1936,249120.0
1937,347592.2
1938,276150.0
1939,204941.5
1940,205575.0
1941,202533.5
1942,281128.1
1943,202675.0
1944,237882.6
1945,267942.2
1946,132502.4
1947,129850.0
1948,226950.0
1949,306440.6
1950,187990.0
1951,117550.0
1952,250479.8
1953,268975.1
1954,229300.0
1955,249120.0
1956,293937.9
1957,186438.6
1958,268056.8
1959,160800.0
1960,186038.6
1961,151927.9
1962,101650.0
1963,100400.0
1964,101650.0
1965,155510.8
1966,166230.0
1967,306440.6
1968,248073.4
1969,250479.8
1970,237882.6
1971,293937.9
1972,235301.7
1973,209530.0
1974,232900.0
1975,294052.8
1976,213661.7
1977,231728.0
1978,301654.3
1979,325117.6
1980,176484.7
1981,129850.0
1982,204941.5
1983,204941.5
1984,155510.8
1985,153700.0
1986,236860.0
1987,117305.8
1988,207984.0
1989,184090.0
1990,195673.2
1991,175540.0
1992,187573.2
1993,188090.0
1994,293937.9
1995,193173.2
1996,230540.0
1997,250990.0
1998,291437.9
1999,250990.0
2000,183070.0
2001,251150.0
2002,261773.4
2003,244330.0
2004,252130.0
2005,154862.5
2006,237905.6
2007,242981.2
2008,200663.6
2009,250800.0
2010,243015.6
2011,268975.1
2012,183577.0
2013,201366.4
2014,201366.4
2015,271056.8
2016,201366.4
2017,184373.2
2018,210218.0
2019,247750.0
2020,114040.2
2021,131075.8
2022,127800.0
2023,178300.0
2024,213530.0
2025,263090.0
2026,191360.0
2027,156241.2
2028,156241.2
2029,159666.0
2030,201135.0
2031,189135.0
2032,189135.0
2033,187635.0
2034,158010.8
2035,253700.0
2036,156241.2
2037,156241.2
2038,156371.2
2039,244551.7
2040,230370.0
2041,126410.0
2042,210888.5
2043,184587.0
2044,241911.7
2045,267942.2
2046,149340.0
2047,245009.9
2048,162809.0
2049,149652.9
2050,256282.6
2051,149420.0
2052,146412.5
2053,271123.4
2054,195420.0
2055,168211.5
2056,168211.5
2057,149940.0
2058,251856.8
2059,172018.0
2060,166128.1
2061,261773.4
2062,186438.6
2063,265143.4
2064,183577.0
2065,290823.5
2066,264800.0
2067,177618.0
2068,166584.7
2069,188288.6
2070,158240.0
2071,88820.0
2072,178300.0
2073,206897.9
2074,271123.4
2075,264475.1
2076,154035.8
2077,146420.0
2078,146420.0
2079,139540.0
2080,116215.0
2081,148690.0
2082,154000.0
2083,148690.0
2084,154035.8
2085,149940.0
2086,135230.0
2087,139440.0
2088,133350.0
2089,111410.0
2090,136350.0
2091,129000.0
2092,135640.0
2093,135640.0
2094,118210.0
2095,146780.0
2096,121760.0
2097,122560.0
2098,139440.0
2099,137370.0
2100,237689.5
2101,143130.0
2102,134250.0
2103,139440.0
2104,143130.0
2105,136350.0
2106,221767.9
2107,163730.0
2108,135142.5
2109,133080.0
2110,95765.0
2111,135640.0
2112,139890.0
2113,137470.0
2114,136350.0
2115,132970.0
2116,122960.0
2117,132970.0
2118,132970.0
2119,125870.0
2120,131220.0
2121,124610.0
2122,132920.0
2123,122110.0
2124,132920.0
2125,136350.0
2126,138550.0
2127,149580.0
2128,135070.0
2129,122110.0
2130,157550.0
2131,132720.0
2132,184500.0
2133,121760.0
2134,132720.0
2135,168740.0
2136,151330.0
2137,186027.0
2138,189767.0
2139,201084.0
2140,201797.9
2141,204600.0
2142,145712.5
2143,213750.0
2144,135331.8
2145,183577.0
2146,276150.0
2147,109125.0
2148,129500.0
2149,208350.0
2150,127800.0
2151,128145.0
2152,130550.0
2153,165821.5
2154,163650.0
2155,223780.0
2156,237620.0
2157,146412.5
2158,281128.1
2159,207750.0
2160,232900.0
2161,183577.0
2162,268347.9
2163,268347.9
2164,188437.0
2165,266923.4
2166,168934.0
2167,174578.0
2168,226982.6
2169,207984.0
2170,237691.7
2171,300079.3
2172,183577.0
2173,240200.0
2174,229300.0
2175,249120.0
2176,238640.0
2177,229350.0
2178,192860.0
2179,160160.0
2180,158250.0
2181,168934.0
2182,241911.7
2183,168911.5
2184,166128.1
2185,182727.0
2186,129475.8
2187,232440.0
2188,188480.0
2189,226950.0
2190,131760.0
2191,128400.0
2192,116470.2
2193,213825.1
2194,139540.0
2195,180729.2
2196,205000.0
2197,86420.0
2198,102225.0
2199,152850.0
2200,218290.0
2201,204792.2
2202,212050.0
2203,224440.0
2204,169301.7
2205,138550.0
2206,149420.0
2207,224440.0
2208,213375.1
2209,124092.4
2210,99700.0
2211,121760.0
2212,132970.0
2213,139340.0
2214,136350.0
2215,127750.0
2216,139440.0
2217,239513.2
2218,166630.0
2219,114473.4
2220,199480.0
2221,236860.0
2222,236860.0
2223,137490.0
2224,253980.0
2225,139870.0
2226,145712.5
2227,159740.0
2228,265143.4
2229,243015.6
2230,217950.0
2231,202580.0
2232,309440.8
2233,120450.0
2234,249463.4
2235,148670.0
2236,334963.4
2237,334963.4
2238,141420.0
2239,183577.0
2240,163490.0
2241,207397.0
2242,160160.0
2243,140280.0
2244,88850.0
2245,90850.0
2246,110900.0
2247,94950.0
2248,129475.8
2249,129475.8
2250,294711.3
2251,323551.0
2252,165020.0
2253,215190.0
2254,212100.0
2255,192616.4
2256,179940.0
2257,184780.0
2258,165821.5
2259,182400.0
2260,120450.0
2261,180143.9
2262,202825.0
2263,215221.7
2264,218050.0
2265,219090.0
2266,130020.0
2267,279450.0
2268,337861.7
2269,213261.7
2270,199890.0
2271,300466.5
2272,223310.0
2273,265955.1
2274,185889.3
2275,262925.1
2276,227530.0
2277,180640.0
2278,186632.0
2279,142420.0
2280,109250.0
2281,170712.8
2282,288085.2
2283,93750.0
2284,93750.0
2285,163715.0
2286,147865.8
2287,313560.2
2288,265955.1
2289,254400.0
2290,224732.6
2291,224732.6
2292,323634.4
2293,337861.7
2294,237861.3
2295,109250.0
2296,249104.0
2297,267080.0
2298,209283.4
2299,222233.0
2300,285128.1
2301,265676.2
2302,146012.5
2303,184182.0
2304,209940.0
2305,171313.9
2306,171313.9
2307,197391.5
2308,180143.9
2309,195588.3
2310,197391.5
2311,177321.1
2312,396326.6
2313,210470.0
2314,220982.6
2315,207820.0
2316,267080.0
2317,317984.6
2318,187983.2
2319,182400.0
2320,143170.0
2321,178778.9
2322,115405.8
2323,218744.0
2324,185887.0
2325,213261.7
2326,197984.0
2327,179940.0
2328,202130.0
2329,271680.0
2330,267080.0
2331,218041.7
2332,218740.0
2333,234390.0
2334,209940.0
2335,189745.0
2336,206534.0
2337,146012.5
2338,265955.1
2339,165980.0
2340,300466.5
2341,145312.5
2342,171218.0
2343,149409.0
2344,267080.0
2345,204709.9
2346,232560.0
2347,281795.8
2348,209820.0
2349,227767.5
2350,228240.0
2351,245391.2
2352,241591.7
2353,227887.5
2354,145157.9
2355,145157.9
2356,313560.2
2357,145157.9
2358,178870.0
2359,149745.2
2360,129175.8
2361,145157.9
2362,262442.0
2363,187990.0
2364,304927.8
2365,191925.0
2366,194150.0
2367,193560.0
2368,194150.0
2369,233620.0
2370,159666.0
2371,158860.8
2372,192288.0
2373,211787.0
2374,203240.0
2375,291067.6
2376,253695.1
2377,110900.0
2378,281245.1
2379,180640.0
2380,208450.0
2381,281245.1
2382,271723.4
2383,165821.5
2384,219330.0
2385,170690.0
2386,187990.0
2387,136270.0
2388,153290.0
2389,145157.9
2390,254400.0
2391,149009.0
2392,183378.0
2393,180068.0
2394,227340.0
2395,211809.9
2396,346023.4
2397,133690.0
2398,206525.1
2399,115405.8
2400,130388.4
2401,115405.8
2402,168211.5
2403,154000.0
2404,204200.0
2405,232600.0
2406,169618.0
2407,142663.7
2408,149409.0
2409,210218.0
2410,168534.0
2411,168621.5
2412,309498.5
2413,172951.8
2414,262963.4
2415,152850.0
2416,213261.7
2417,141020.0
2418,196318.0
2419,149190.0
2420,190328.0
2421,165821.5
2422,152850.0
2423,273800.0
2424,207235.1
2425,359179.0
2426,131200.0
2427,223150.0
2428,212100.0
2429,175678.0
2430,143697.3
2431,147265.8
2432,145157.9
2433,156977.9
2434,143165.0
2435,140170.0
2436,148405.8
2437,127575.8
2438,196050.0
2439,118060.0
2440,132540.0
2441,115100.0
2442,74560.0
2443,118060.0
2444,139010.0
2445,122130.0
2446,137190.0
2447,164300.0
2448,135640.0
2449,129540.4
2450,138910.0
2451,114720.4
2452,200787.9
2453,129097.5
2454,202887.0
2455,123195.0
2456,137810.0
2457,132490.0
2458,133390.4
2459,131140.0
2460,132490.0
2461,132490.0
2462,132490.0
2463,132540.0
2464,135690.0
2465,138527.6
2466,138460.0
2467,131990.4
2468,130040.0
2469,130790.0
2470,178192.0
2471,156760.0
2472,184070.0
2473,136870.0
2474,184070.0
2475,257124.4
2476,155135.6
2477,129290.0
2478,189767.0
2479,253300.0
2480,226494.0
2481,297545.1
2482,125465.2
2483,192138.0
2484,190328.0
2485,146809.0
2486,279450.0
2487,250604.0
2488,140390.0
2489,292423.4
2490,258923.4
2491,177908.0
2492,238701.7
2493,109650.0
2494,137490.0
2495,110900.0
2496,304927.8
2497,135000.0
2498,123875.8
2499,200611.7
2500,178188.9
2501,184182.0
2502,150890.0
2503,158740.0
2504,142950.0
2505,207330.0
2506,195527.0
2507,183565.0
2508,201248.6
2509,265955.1
2510,169618.0
2511,147265.8
2512,207330.0
2513,207820.0
2514,127800.0
2515,277900.0
2516,256200.0
2517,187078.0
2518,130000.0
2519,208590.0
2520,215221.7
2521,258380.0
2522,229909.9
2523,265955.1
2524,212390.0
2525,221450.0
2526,179308.0
2527,130000.0
2528,170811.5
2529,147265.8
2530,147265.8
2531,271723.4
2532,202130.0
2533,187133.2
2534,273767.9
2535,239025.6
2536,318482.2
2537,109250.0
2538,187133.2
2539,169618.0
2540,140759.0
2541,185176.4
2542,206534.0
2543,213850.0
2544,143697.3
2545,132750.0
2546,148209.0
2547,194500.0
2548,163650.0
2549,159590.0
2550,189290.0
2551,138100.0
2552,129175.8
2553,132996.0
2554,154000.0
2555,131050.0
2556,146809.0
2557,146809.0
2558,153290.0
2559,96925.0
2560,140390.0
2561,198400.0
2562,200350.0
2563,198350.0
2564,198350.0
2565,265175.1
2566,147375.0
2567,126155.2
2568,124092.4
2569,140100.0
2570,93300.0
2571,110900.0
2572,195790.0
2573,122700.0
2574,120450.0
2575,132290.0
2576,132790.0
2577,139340.0
2578,93030.0
2579,216700.0
2580,144720.4
2581,127167.9
2582,84515.0
2583,215940.0
2584,178882.0
2585,154462.5
2586,301740.8
2587,146012.5
2588,215190.0
2589,207600.0
2590,172003.9
2591,127800.0
2592,177228.0
2593,143697.3
2594,185889.3
2595,156851.6
2596,280173.4
2597,143170.0
2598,189745.0
2599,303898.5
2600,224350.0
2601,215940.0
2602,91600.0
2603,88200.0
2604,91600.0
2605,97600.0
2606,215840.0
2607,217794.0
2608,136302.4
2609,187983.2
2610,196050.0
2611,136302.4
2612,223661.7
2613,262963.4
2614,191340.0
2615,238111.7
2616,180620.0
2617,260355.1
2618,194090.0
2619,273935.1
2620,189033.2
2621,213611.7
2622,264220.0
2623,212000.0
2624,243136.8
2625,130721.8
2626,164570.0
2627,195477.8
2628,397022.4
2629,252443.4
2630,221691.7
2631,397022.4
2632,397022.4
2633,130020.0
2634,125250.0
2635,203650.0
2636,223260.0
2637,213800.0
2638,280190.0
2639,205150.0
2640,152612.5
2641,161853.7
2642,330385.2
2643,122700.0
2644,94500.0
2645,98350.0
2646,96300.0
2647,96300.0
2648,191569.5
2649,171045.8
2650,170681.8
2651,159895.6
2652,301654.3
2653,135430.0
2654,312384.6
2655,257150.0
2656,256706.8
2657,259690.0
2658,254077.4
2659,215970.0
2660,179740.0
2661,258923.4
2662,254650.0
2663,212361.3
2664,195125.0
2665,171470.0
2666,189841.5
2667,212800.0
2668,212800.0
2669,252355.1
2670,176960.0
2671,209660.0
2672,171132.8
2673,170681.8
2674,159848.0
2675,170681.8
2676,214510.0
2677,193322.2
2678,227951.7
2679,272950.0
2680,280190.0
2681,223160.0
2682,258430.0
2683,256476.4
2684,212800.0
2685,234505.6
2686,269108.5
2687,247665.1
2688,203151.7
2689,232560.0
2690,214388.7
2691,194500.0
2692,171470.0
2693,238111.7
2694,253425.1
2695,182340.0
2696,184340.0
2697,186932.2
2698,275810.0
2699,169720.0
2700,169720.0
2701,209660.0
2702,227068.0
2703,141440.0
2704,184182.0
2705,184182.0
2706,215698.0
2707,222938.0
2708,253425.1
2709,168470.0
2710,191118.0
2711,231779.7
2712,252220.0
2713,199012.8
2714,155631.2
2715,153546.4
2716,158211.2
2717,194500.0
2718,192288.0
2719,130721.8
2720,205639.3
2721,165111.5
2722,193322.2
2723,184182.0
2724,207550.0
2725,164521.5
2726,230900.0
2727,126450.0
2728,193279.3
2729,226860.0
2730,192680.0
2731,109425.0
2732,164434.0
2733,165111.5
2734,218351.7
2735,165111.5
2736,288910.0
2737,152495.3
2738,148100.0
2739,203737.7
2740,164434.0
2741,207028.0
2742,165111.5
2743,212000.0
2744,201739.3
2745,272500.0
2746,281023.5
2747,216648.6
2748,205000.0
2749,241911.7
2750,209023.4
2751,262834.4
2752,130250.0
2753,242323.4
2754,175237.0
2755,124895.0
2756,112150.0
2757,104600.0
2758,119240.0
2759,198350.0
2760,174600.0
2761,212000.0
2762,159926.5
2763,192680.0
2764,252355.1
2765,252443.4
2766,221035.1
2767,148100.0
2768,148100.0
2769,162993.7
2770,171045.8
2771,162993.7
2772,130655.2
2773,137390.0
2774,139710.0
2775,126840.0
2776,139710.0
2777,132890.0
2778,136740.4
2779,137540.0
2780,126250.0
2781,120900.0
2782,132115.4
2783,135890.0
2784,137540.0
2785,118790.0
2786,126630.0
2787,139710.0
2788,120900.0
2789,131690.0
2790,147170.0
2791,135142.5
2792,108683.4
2793,189930.7
2794,118790.0
2795,118790.0
2796,262603.4
2797,164740.0
2798,178520.0
2799,135890.0
2800,114330.0
2801,118060.0
2802,218085.1
2803,161517.0
2804,127500.0
2805,80325.0
2806,89698.0
2807,141563.7
2808,270013.4
2809,206050.0
2810,188808.0
2811,162721.5
2812,193600.0
2813,149810.0
2814,151100.0
2815,116850.0
2816,132600.0
2817,253425.1
2818,206200.0
2819,159895.6
2820,184182.0
2821,117005.0
2822,275790.1
2823,278287.1
2824,193022.7
2825,267975.1
2826,180620.0
2827,115380.0
2828,227951.7
2829,154900.0
2830,240420.0
2831,171045.8
2832,235573.4
2833,252355.1
2834,233920.0
2835,184182.0
2836,210760.0
2837,248095.1
2838,253425.1
2839,268187.2
2840,214178.0
2841,213160.0
2842,216111.3
2843,186932.2
2844,206050.0
2845,161853.7
2846,263120.0
2847,288910.0
2848,238701.7
2849,205560.0
2850,222670.0
2851,316213.4
2852,223843.5
2853,223843.5
2854,157230.0
2855,206218.0
2856,180875.4
2857,192032.2
2858,192518.0
2859,216300.0
2860,151100.0
2861,145730.0
2862,185160.0
2863,164570.0
2864,241293.5
2865,143200.0
2866,118450.0
2867,119240.0
2868,120880.0
2869,138357.6
2870,145730.0
2871,107980.0
2872,113525.0
2873,240040.0
2874,162800.0
2875,154470.4
2876,198350.0
2877,198400.0
2878,225200.0
2879,122900.0
2880,118615.0
2881,143950.0
2882,218085.1
2883,113880.0
2884,223117.4
2885,267792.5
2886,338726.6
2887,118060.0
2888,123290.0
2889,115620.0
2890,118060.0
2891,129510.0
2892,216703.4
2893,153205.2
2894,90760.0
2895,218640.0
2896,198090.0
2897,142290.0
2898,151450.0
2899,227277.0
2900,185887.0
2901,230950.0
2902,272500.0
2903,209283.4
2904,261253.4
2905,140752.4
2906,147170.0
2907,122700.0
2908,216648.6
2909,166667.0
2910,85200.0
2911,91600.0
2912,235573.4
2913,92800.0
2914,92800.0
2915,94800.0
2916,98350.0
2917,132600.0
2918,203650.0
2919,272950.0
